Designator	Footprint	Mid X	Mid Y	Ref X	Ref Y	Pad X	Pad Y	Layer	Rotation	Comment
"AIO_C1"	"CAP-SMD_BD3.0-L3.3-W3.3-FD"	"69mm"	"50.5mm"	"69mm"	"50.5mm"	"70.5mm"	"50.5mm"	"T"	"180"	"10uF"
"AIO_C2"	"CAP-SMD_BD3.0-L3.3-W3.3-FD"	"69mm"	"41.5mm"	"69mm"	"41.5mm"	"70.5mm"	"41.5mm"	"T"	"180"	"10uF"
"AIO_C3"	"CAP-SMD_BD3.0-L3.3-W3.3-FD"	"69mm"	"32.5mm"	"69mm"	"32.5mm"	"70.5mm"	"32.5mm"	"T"	"180"	"10uF"
"AIO_E1"	"C0402"	"72mm"	"52.5mm"	"72mm"	"52.5mm"	"72mm"	"51.85mm"	"T"	"90"	"LXES15AAA1-153"
"AIO_E2"	"C0402"	"72mm"	"48.5mm"	"72mm"	"48.5mm"	"72mm"	"49.15mm"	"T"	"270"	"LXES15AAA1-153"
"AIO_E3"	"C0402"	"72mm"	"43.5mm"	"72mm"	"43.5mm"	"72mm"	"42.85mm"	"T"	"90"	"LXES15AAA1-153"
"AIO_E4"	"C0402"	"72mm"	"39.5mm"	"72mm"	"39.5mm"	"72mm"	"40.15mm"	"T"	"270"	"LXES15AAA1-153"
"AIO_E5"	"C0402"	"72mm"	"34.5mm"	"72mm"	"34.5mm"	"72mm"	"33.85mm"	"T"	"90"	"LXES15AAA1-153"
"AIO_E6"	"C0402"	"72mm"	"30.5mm"	"72mm"	"30.5mm"	"72mm"	"31.15mm"	"T"	"270"	"LXES15AAA1-153"
"AIO_R1"	"R0402"	"68.5mm"	"48mm"	"68.5mm"	"48mm"	"68.93mm"	"48mm"	"T"	"180"	"100kΩ"
"AIO_R2"	"R0402"	"70.5mm"	"47.5mm"	"70.5mm"	"47.5mm"	"70.5mm"	"47.93mm"	"T"	"270"	"100kΩ"
"AIO_R3"	"R0402"	"68.5mm"	"39mm"	"68.5mm"	"39mm"	"68.93mm"	"39mm"	"T"	"180"	"100kΩ"
"AIO_R4"	"R0402"	"70.5mm"	"38.5mm"	"70.5mm"	"38.5mm"	"70.5mm"	"38.93mm"	"T"	"270"	"100kΩ"
"AIO_R5"	"R0402"	"68.5mm"	"30mm"	"68.5mm"	"30mm"	"68.93mm"	"30mm"	"T"	"180"	"100kΩ"
"AIO_R6"	"R0402"	"70.5mm"	"29.5mm"	"70.5mm"	"29.5mm"	"70.5mm"	"29.93mm"	"T"	"270"	"100kΩ"
"BOOT"	"KEY-TH_4P-L7.1-W12.4-P4.50-LS2.5"	"79.5mm"	"75mm"	"79.5mm"	"75mm"	"80.75mm"	"72.75mm"	"T"	"90"	"TS-1093A-A12B3-D2"
"BOOT_CFG"	"HDR-M-2.54_1X2"	"56.5mm"	"37.5mm"	"56.5mm"	"37.5mm"	"55.23mm"	"37.5mm"	"T"	"0"	"HDR-M-2.54_1x2"
"B_C1"	"C0402"	"71.5mm"	"83.5mm"	"71.5mm"	"83.5mm"	"71.5mm"	"83mm"	"T"	"90"	"1nF"
"B_C2"	"C0402"	"74mm"	"78mm"	"74mm"	"78mm"	"74mm"	"78.5mm"	"T"	"270"	"1nF"
"B_C3"	"C0805"	"75.5mm"	"101mm"	"75.5mm"	"101mm"	"74.47mm"	"101mm"	"T"	"0"	"22nF"
"B_C4"	"C0805"	"70mm"	"101mm"	"70mm"	"101mm"	"68.97mm"	"101mm"	"T"	"0"	"22nF"
"B_C5"	"C0805"	"64.5mm"	"101mm"	"64.5mm"	"101mm"	"63.47mm"	"101mm"	"T"	"0"	"22nF"
"B_D1"	"D0402-BI"	"76mm"	"84.5mm"	"76mm"	"84.5mm"	"76mm"	"85mm"	"T"	"270"	"LXES15AAA1-133"
"B_D2"	"D0402-BI"	"75.5mm"	"76.5mm"	"75.5mm"	"76.5mm"	"75.5mm"	"76mm"	"T"	"90"	"LXES15AAA1-133"
"CARD"	"SIM-SMD_C77877"	"40.89mm"	"43.18mm"	"40.89mm"	"43.18mm"	"46.75mm"	"40.83mm"	"T"	"270"	"nano1.4_c77877"
"CN1"	"HDR-SMD_6P-P2.54-V-F-R2-C3-LS7.0"	"40.5mm"	"6mm"	"40.5mm"	"6mm"	"37.96mm"	"8.7mm"	"T"	"0"	"PM254-2-03-S-8.5"
"C_C1"	"C0402"	"49.02mm"	"36.58mm"	"49.02mm"	"36.58mm"	"49.02mm"	"36.08mm"	"T"	"90"	"1uF"
"C_C2"	"C0402"	"52.58mm"	"43.31mm"	"52.58mm"	"43.31mm"	"52.08mm"	"43.31mm"	"T"	"0"	"1uF"
"C_C3"	"C0402"	"68.5mm"	"20mm"	"68.5mm"	"20mm"	"68.5mm"	"19.5mm"	"T"	"90"	"1uF"
"C_C4"	"C0402"	"70.61mm"	"18.16mm"	"70.61mm"	"18.16mm"	"70.11mm"	"18.16mm"	"T"	"0"	"1uF"
"C_C5"	"C0402"	"70mm"	"20mm"	"70mm"	"20mm"	"70mm"	"19.5mm"	"T"	"90"	"1uF"
"C_C6"	"C0402"	"43.69mm"	"35.31mm"	"43.69mm"	"35.31mm"	"44.19mm"	"35.31mm"	"T"	"180"	"1uF"
"C_C7"	"C0805"	"59mm"	"101mm"	"59mm"	"101mm"	"57.97mm"	"101mm"	"T"	"0"	"22nF"
"C_C8"	"C0402"	"67.18mm"	"21.97mm"	"67.18mm"	"21.97mm"	"67.18mm"	"21.47mm"	"T"	"90"	"NC"
"C_C9"	"C0402"	"70.74mm"	"22.99mm"	"70.74mm"	"22.99mm"	"70.74mm"	"23.49mm"	"T"	"270"	"NC"
"C_C10"	"C0402"	"68.96mm"	"15.49mm"	"68.96mm"	"15.49mm"	"68.46mm"	"15.49mm"	"T"	"0"	"33pF"
"C_C11"	"C0402"	"72.52mm"	"15.49mm"	"72.52mm"	"15.49mm"	"72.02mm"	"15.49mm"	"T"	"0"	"33pF"
"C_C12"	"C0805"	"53.5mm"	"101mm"	"53.5mm"	"101mm"	"52.47mm"	"101mm"	"T"	"0"	"22nF"
"C_D1"	"D0402-BI"	"74.29mm"	"22.99mm"	"74.29mm"	"22.99mm"	"74.29mm"	"23.49mm"	"T"	"270"	"LXES15AAA1-133"
"C_D2"	"SOT-363_L2.0-W1.3-P0.65-LS2.1-TL"	"39mm"	"33.5mm"	"39mm"	"33.5mm"	"38.35mm"	"32.58mm"	"T"	"90"	"ESDA6V1-5W6-TP"
"C_D3"	"D0402-BI"	"76.2mm"	"14.99mm"	"76.2mm"	"14.99mm"	"76.2mm"	"14.49mm"	"T"	"90"	"LXES15AAA1-133"
"C_D4"	"SOT-363_L2.0-W1.3-P0.65-LS2.1-TL"	"73mm"	"71mm"	"73mm"	"71mm"	"73.65mm"	"71.92mm"	"T"	"270"	"ESDA6V1-5W6-TP"
"C_F1"	"L0402"	"74.5mm"	"11.5mm"	"74.5mm"	"11.5mm"	"74.5mm"	"12mm"	"T"	"270"	"GZ1005E121TF"
"C_GPS"	"IPEX-SMD_BWIPX-1-001E"	"78.25mm"	"15.5mm"	"78.25mm"	"15.5mm"	"77.49mm"	"15.5mm"	"T"	"0"	"BWIPX-1-001E"
"C_L1"	"L0603"	"74.55mm"	"14.6mm"	"74.55mm"	"14.61mm"	"74.55mm"	"15.5mm"	"T"	"270"	"47nH"
"C_L2"	"L0402"	"67.18mm"	"14.99mm"	"67.18mm"	"14.99mm"	"67.18mm"	"15.49mm"	"T"	"270"	"NC"
"C_L3"	"L0402"	"70.74mm"	"14.99mm"	"70.74mm"	"14.99mm"	"70.74mm"	"15.49mm"	"T"	"270"	"NC"
"C_Q1"	"SOT-23-3_L3.0-W1.7-P0.95-LS2.9-BR"	"71mm"	"26.5mm"	"71mm"	"26.5mm"	"69.75mm"	"27.45mm"	"T"	"180"	"S8050_C2146"
"C_Q2"	"SOT-23-3_L3.0-W1.7-P0.95-LS2.9-BR"	"73.5mm"	"6mm"	"73.5mm"	"6mm"	"72.25mm"	"6.95mm"	"T"	"180"	"S8050_C2146"
"C_Q3"	"SOT-23-3_L3.0-W1.7-P0.95-LS2.9-BR"	"61.5mm"	"39mm"	"61.5mm"	"39mm"	"60.25mm"	"39.95mm"	"T"	"180"	"S8050_C2146"
"C_R1"	"R0402"	"68.5mm"	"28.5mm"	"68.5mm"	"28.5mm"	"68mm"	"28.5mm"	"T"	"0"	"4.7K"
"C_R2"	"R0402"	"74mm"	"27.5mm"	"74mm"	"27.5mm"	"74mm"	"27mm"	"T"	"90"	"330"
"C_R3"	"R0402"	"68mm"	"26.5mm"	"68mm"	"26.5mm"	"68mm"	"27mm"	"T"	"270"	"47K"
"C_R4"	"R0402"	"72mm"	"9mm"	"72mm"	"9mm"	"72mm"	"9.5mm"	"T"	"270"	"4.7K"
"C_R5"	"R0402"	"77mm"	"6.5mm"	"77mm"	"6.5mm"	"77mm"	"6mm"	"T"	"90"	"330"
"C_R6"	"R0402"	"70mm"	"8.5mm"	"70mm"	"8.5mm"	"70.5mm"	"8.5mm"	"T"	"180"	"47K"
"C_R7"	"R0402"	"58.5mm"	"42mm"	"58.5mm"	"42mm"	"58.5mm"	"42.5mm"	"T"	"270"	"4.7K"
"C_R8"	"R0402"	"60.5mm"	"41.5mm"	"60.5mm"	"41.5mm"	"60mm"	"41.5mm"	"T"	"0"	"47K"
"C_R9"	"R0402"	"72.52mm"	"22.48mm"	"72.52mm"	"22.48mm"	"72.02mm"	"22.48mm"	"T"	"0"	"0"
"C_R10"	"R0402"	"68.96mm"	"22.48mm"	"68.96mm"	"22.48mm"	"68.46mm"	"22.48mm"	"T"	"0"	"0"
"C_R11"	"R0402"	"56mm"	"39.5mm"	"56mm"	"39.5mm"	"56.5mm"	"39.5mm"	"T"	"180"	"10K"
"C_RF1"	"SMA-TH_HJ-SMA143"	"78.5mm"	"22.5mm"	"78.5mm"	"22.5mm"	"78.5mm"	"22.5mm"	"T"	"180"	"HJ-SMA143"
"C_U1"	"SIM7070G FOOTPRINT PCB"	"53.5mm"	"22.5mm"	"61.5mm"	"34.5mm"	"61.5mm"	"34.5mm"	"T"	"270"	"SIM7070 Series module"
"C_U2"	"SSOP-8_L3.0-W2.8-P0.65-LS4.0-BL"	"51.5mm"	"39.5mm"	"51.5mm"	"39.5mm"	"50.53mm"	"37.3mm"	"T"	"0"	"TXS0102DCTT"
"D1"	"SOT-23-6_L2.9-W1.6-P0.95-LS2.8-BR"	"40mm"	"87mm"	"40mm"	"87mm"	"41.4mm"	"86.05mm"	"T"	"0"	"TPD4S009DBVR"
"D9"	"SOD-323_L1.8-W1.3-LS2.5-BI"	"19mm"	"35.5mm"	"19mm"	"35.5mm"	"19mm"	"34.3mm"	"T"	"90"	"PESD24VL1BA,115"
"D11"	"SOD-323_L1.8-W1.3-LS2.5-BI"	"23mm"	"11.5mm"	"23mm"	"11.5mm"	"21.8mm"	"11.5mm"	"T"	"0"	"PESD24VL1BA,115"
"DC1"	"DC-IN-TH_DC-042C-W-2.0"	"16mm"	"10.5mm"	"16mm"	"10.5mm"	"12.9mm"	"5.44mm"	"T"	"0"	"DC-042C-W-2.0"
"DI_C1"	"C0402"	"22mm"	"67.5mm"	"22mm"	"67.5mm"	"21.5mm"	"67.5mm"	"T"	"0"	"1nF"
"DI_C2"	"C0402"	"21.84mm"	"72.64mm"	"21.84mm"	"72.64mm"	"21.84mm"	"72.14mm"	"T"	"90"	"1nF"
"DI_C3"	"C0402"	"21.84mm"	"75.31mm"	"21.84mm"	"75.31mm"	"21.84mm"	"75.81mm"	"T"	"270"	"1nF"
"DI_C4"	"C0402"	"21.84mm"	"78.74mm"	"21.84mm"	"78.74mm"	"21.84mm"	"78.24mm"	"T"	"90"	"1nF"
"DI_C5"	"C0402"	"21.97mm"	"47.12mm"	"21.97mm"	"47.12mm"	"21.97mm"	"47.62mm"	"T"	"270"	"1nF"
"DI_C6"	"C0402"	"21.84mm"	"50.93mm"	"21.84mm"	"50.93mm"	"21.84mm"	"51.43mm"	"T"	"270"	"1nF"
"DI_C7"	"C0402"	"22mm"	"54.5mm"	"22mm"	"54.5mm"	"22mm"	"54mm"	"T"	"90"	"1nF"
"DI_C8"	"C0402"	"23.5mm"	"58mm"	"23.5mm"	"58mm"	"23.5mm"	"57.5mm"	"T"	"90"	"1nF"
"DI_C9"	"C1206"	"25.78mm"	"66.04mm"	"25.78mm"	"66.04mm"	"24.19mm"	"66.04mm"	"T"	"0"	"10nF"
"DI_C10"	"C1206"	"25.78mm"	"44.58mm"	"25.78mm"	"44.58mm"	"24.19mm"	"44.58mm"	"T"	"0"	"10nF"
"DI_CN1"	"CONN-TH_WJ2EDGRC-5.08-5P"	"14mm"	"76.5mm"	"14mm"	"76.5mm"	"14mm"	"86.66mm"	"T"	"270"	"WJ2EDGRC-5.08-5P"
"DI_CN2"	"CONN-TH_WJ2EDGRC-5.08-5P"	"14mm"	"49mm"	"14mm"	"49mm"	"14mm"	"59.16mm"	"T"	"270"	"WJ2EDGRC-5.08-5P"
"DI_D1"	"SOD-323_L1.8-W1.3-LS2.5-BI"	"19mm"	"82mm"	"19mm"	"82mm"	"17.8mm"	"82mm"	"T"	"0"	"PESD24VL1BA,115"
"DI_D2"	"SOD-323_L1.8-W1.3-LS2.5-BI"	"19mm"	"77mm"	"19mm"	"77mm"	"17.8mm"	"77mm"	"T"	"0"	"PESD24VL1BA,115"
"DI_D3"	"SOD-323_L1.8-W1.3-LS2.5-BI"	"19mm"	"72mm"	"19mm"	"72mm"	"17.8mm"	"72mm"	"T"	"0"	"PESD24VL1BA,115"
"DI_D4"	"SOD-323_L1.8-W1.3-LS2.5-BI"	"19mm"	"67mm"	"19mm"	"67mm"	"17.8mm"	"67mm"	"T"	"0"	"PESD24VL1BA,115"
"DI_D5"	"SOD-323_L1.8-W1.3-LS2.5-BI"	"19mm"	"58mm"	"19mm"	"58mm"	"17.8mm"	"58mm"	"T"	"0"	"PESD24VL1BA,115"
"DI_D6"	"SOD-323_L1.8-W1.3-LS2.5-BI"	"19mm"	"53mm"	"19mm"	"53mm"	"17.8mm"	"53mm"	"T"	"0"	"PESD24VL1BA,115"
"DI_D7"	"SOD-323_L1.8-W1.3-LS2.5-BI"	"19mm"	"48mm"	"19mm"	"48mm"	"17.8mm"	"48mm"	"T"	"0"	"PESD24VL1BA,115"
"DI_D8"	"SOD-323_L1.8-W1.3-LS2.5-BI"	"19mm"	"43mm"	"19mm"	"43mm"	"17.8mm"	"43mm"	"T"	"0"	"PESD24VL1BA,115"
"DI_R1"	"R0805"	"19mm"	"79.5mm"	"19mm"	"79.5mm"	"18mm"	"79.5mm"	"T"	"0"	"4.7K"
"DI_R2"	"R0805"	"19mm"	"74.5mm"	"19mm"	"74.5mm"	"18mm"	"74.5mm"	"T"	"0"	"4.7K"
"DI_R3"	"R0805"	"19mm"	"69.5mm"	"19mm"	"69.5mm"	"18mm"	"69.5mm"	"T"	"0"	"4.7K"
"DI_R4"	"R0805"	"19mm"	"64.5mm"	"19mm"	"64.5mm"	"18mm"	"64.5mm"	"T"	"0"	"4.7K"
"DI_R5"	"R0805"	"19mm"	"60.5mm"	"19mm"	"60.5mm"	"18mm"	"60.5mm"	"T"	"0"	"4.7K"
"DI_R6"	"R0805"	"19mm"	"55.5mm"	"19mm"	"55.5mm"	"18mm"	"55.5mm"	"T"	"0"	"4.7K"
"DI_R7"	"R0805"	"19mm"	"50.5mm"	"19mm"	"50.5mm"	"18mm"	"50.5mm"	"T"	"0"	"4.7K"
"DI_R8"	"R0805"	"19mm"	"45.5mm"	"19mm"	"45.5mm"	"18mm"	"45.5mm"	"T"	"0"	"4.7K"
"DI_R9"	"R0402"	"28.5mm"	"80mm"	"28.5mm"	"80mm"	"29mm"	"80mm"	"T"	"180"	"10K"
"DI_R10"	"R0402"	"33.5mm"	"75mm"	"33.5mm"	"75mm"	"33mm"	"75mm"	"T"	"0"	"10K"
"DI_R11"	"R0402"	"33.5mm"	"72mm"	"33.5mm"	"72mm"	"33mm"	"72mm"	"T"	"0"	"10K"
"DI_R12"	"R0402"	"33mm"	"68.5mm"	"33mm"	"68.5mm"	"33mm"	"69mm"	"T"	"270"	"10K"
"DI_R13"	"R0402"	"31mm"	"58.5mm"	"31mm"	"58.5mm"	"31mm"	"58mm"	"T"	"90"	"10K"
"DI_R14"	"R0402"	"33mm"	"53.5mm"	"33mm"	"53.5mm"	"33mm"	"54mm"	"T"	"270"	"10K"
"DI_R15"	"R0402"	"34.5mm"	"52.5mm"	"34.5mm"	"52.5mm"	"34.5mm"	"52mm"	"T"	"90"	"10K"
"DI_R16"	"R0402"	"33mm"	"49mm"	"33mm"	"49mm"	"33mm"	"49.5mm"	"T"	"270"	"10K"
"D_U1"	"SOP-16_L10.3-W5.4-P1.27-LS7.8-BL"	"27.5mm"	"73.5mm"	"27.5mm"	"73.5mm"	"23.93mm"	"77.95mm"	"T"	"270"	"LTV-247"
"D_U2"	"SOP-16_L10.3-W5.4-P1.27-LS7.8-BL"	"27.5mm"	"52mm"	"27.5mm"	"52mm"	"23.93mm"	"56.45mm"	"T"	"270"	"LTV-247"
"ERR"	"LED0603-R-RD"	"70mm"	"103mm"	"70mm"	"103mm"	"70.85mm"	"103mm"	"T"	"0"	"KT-0603R"
"ESP32"	"WIFI-SMD_ESP32-WROVER-E"	"47.88mm"	"62.48mm"	"47.88mm"	"62.48mm"	"59.31mm"	"71.48mm"	"T"	"270"	"ESP32-WROVER-IE(16MB)"
"ESP_C1"	"C0402"	"43.31mm"	"51.69mm"	"43.31mm"	"51.69mm"	"42.81mm"	"51.69mm"	"T"	"0"	"1nF"
"ESP_C2"	"C0402"	"58.17mm"	"74.3mm"	"58.17mm"	"74.3mm"	"58.17mm"	"73.8mm"	"T"	"90"	"1uF"
"ESP_C3"	"C0402"	"56.52mm"	"74.3mm"	"56.52mm"	"74.3mm"	"56.52mm"	"73.8mm"	"T"	"90"	"1nF"
"ESP_R1"	"R0402"	"71.5mm"	"86mm"	"71.5mm"	"86mm"	"71.5mm"	"85.5mm"	"T"	"90"	"10K"
"ESP_R2"	"R0402"	"70.61mm"	"77.09mm"	"70.61mm"	"77.09mm"	"71.11mm"	"77.09mm"	"T"	"180"	"10K"
"ESP_R3"	"R0402"	"41.02mm"	"51.69mm"	"41.02mm"	"51.69mm"	"41.52mm"	"51.69mm"	"T"	"180"	"5.1K"
"ESP_R5"	"R0402"	"55mm"	"48mm"	"55mm"	"48mm"	"55mm"	"47.5mm"	"T"	"90"	"33"
"ETH_C1"	"C0402"	"29.85mm"	"82.68mm"	"29.85mm"	"82.68mm"	"29.85mm"	"83.18mm"	"T"	"270"	"1uF"
"ETH_C2"	"C0402"	"42.16mm"	"93.98mm"	"42.16mm"	"93.98mm"	"42.16mm"	"93.44mm"	"T"	"90"	"100nF"
"ETH_C3"	"C0402"	"43.18mm"	"83.82mm"	"43.18mm"	"83.82mm"	"42.64mm"	"83.82mm"	"T"	"0"	"100nF"
"ETH_C4"	"C0402"	"52.2mm"	"81.92mm"	"52.2mm"	"81.92mm"	"51.65mm"	"81.92mm"	"T"	"0"	"100nF"
"ETH_C5"	"C0402"	"56.5mm"	"82mm"	"56.5mm"	"82mm"	"56.5mm"	"82.55mm"	"T"	"270"	"100nF"
"ETH_C6"	"C0402"	"49.78mm"	"81.92mm"	"49.78mm"	"81.92mm"	"50.33mm"	"81.92mm"	"T"	"180"	"100nF"
"ETH_C7"	"C0402"	"60.96mm"	"88.77mm"	"60.96mm"	"88.77mm"	"60.42mm"	"88.77mm"	"T"	"0"	"100nF"
"ETH_C8"	"C1812"	"49mm"	"97.5mm"	"49mm"	"97.5mm"	"46.71mm"	"97.5mm"	"T"	"0"	"3.3uF"
"ETH_C9"	"C0402"	"46mm"	"90mm"	"46mm"	"90mm"	"46.55mm"	"90mm"	"T"	"180"	"100nF"
"ETH_C10"	"C0402"	"58mm"	"84.5mm"	"58mm"	"84.5mm"	"57.46mm"	"84.5mm"	"T"	"0"	"100nF"
"ETH_C11"	"C0402"	"59.82mm"	"91.31mm"	"59.82mm"	"91.31mm"	"59.27mm"	"91.31mm"	"T"	"0"	"100nF"
"ETH_C12"	"C0402"	"52.58mm"	"83.06mm"	"52.58mm"	"83.06mm"	"52.03mm"	"83.06mm"	"T"	"0"	"100nF"
"ETH_C13"	"C0402"	"47.12mm"	"87.76mm"	"47.12mm"	"87.76mm"	"47.66mm"	"87.76mm"	"T"	"180"	"100nF"
"ETH_C14"	"C0402"	"45mm"	"83mm"	"45mm"	"83mm"	"45mm"	"83.55mm"	"T"	"270"	"18pF"
"ETH_C15"	"C0402"	"47.88mm"	"81.15mm"	"47.88mm"	"81.15mm"	"47.88mm"	"81.7mm"	"T"	"270"	"18pF"
"ETH_L1"	"L0603"	"50.8mm"	"80.52mm"	"50.8mm"	"80.52mm"	"51.5mm"	"80.52mm"	"T"	"180"	"PB1608-121/3A0"
"ETH_L2"	"L0603"	"48.77mm"	"93.35mm"	"48.77mm"	"93.35mm"	"48.07mm"	"93.35mm"	"T"	"0"	"PB1608-121/3A0"
"ETH_L3"	"L0603"	"58.5mm"	"93mm"	"58.5mm"	"93mm"	"59.2mm"	"93mm"	"T"	"180"	"PB1608-121/3A0"
"ETH_L4"	"L0603"	"55mm"	"82mm"	"55mm"	"82mm"	"55mm"	"81.3mm"	"T"	"90"	"PB1608-121/3A0"
"ETH_R1"	"R0402"	"43.56mm"	"90.55mm"	"43.56mm"	"90.55mm"	"43.56mm"	"90.98mm"	"T"	"270"	"49.9Ω"
"ETH_R2"	"R0402"	"43.56mm"	"92.58mm"	"43.56mm"	"92.58mm"	"43.56mm"	"92.15mm"	"T"	"90"	"49.9Ω"
"ETH_R3"	"R0402"	"42.55mm"	"85.73mm"	"42.55mm"	"85.73mm"	"42.55mm"	"86.16mm"	"T"	"270"	"49.9Ω"
"ETH_R4"	"R0402"	"42.55mm"	"88.52mm"	"42.55mm"	"88.52mm"	"42.55mm"	"88.09mm"	"T"	"90"	"49.9Ω"
"ETH_R5"	"R0402"	"45.97mm"	"92.46mm"	"45.97mm"	"92.46mm"	"45.54mm"	"92.46mm"	"T"	"0"	"3.3Ω"
"ETH_R6"	"R0402"	"45.97mm"	"91.31mm"	"45.97mm"	"91.31mm"	"45.54mm"	"91.31mm"	"T"	"0"	"3.3Ω"
"ETH_R7"	"R0402"	"44.2mm"	"88.65mm"	"44.2mm"	"88.65mm"	"43.76mm"	"88.65mm"	"T"	"0"	"3.3Ω"
"ETH_R8"	"R0402"	"44.2mm"	"87.5mm"	"44.2mm"	"87.5mm"	"43.76mm"	"87.5mm"	"T"	"0"	"3.3Ω"
"ETH_R9"	"R0402"	"39mm"	"99.5mm"	"39mm"	"99.5mm"	"39.43mm"	"99.5mm"	"T"	"180"	"1kΩ"
"ETH_R10"	"R0402"	"39mm"	"98mm"	"39mm"	"98mm"	"39.43mm"	"98mm"	"T"	"180"	"1kΩ"
"ETH_R11"	"R0402"	"60.5mm"	"82.5mm"	"60.5mm"	"82.5mm"	"60.07mm"	"82.5mm"	"T"	"0"	"12kΩ"
"ETH_R12"	"R0402"	"61mm"	"81mm"	"61mm"	"81mm"	"61mm"	"81.43mm"	"T"	"270"	"300Ω"
"ETH_R13"	"R0805"	"54.5mm"	"96.5mm"	"54.5mm"	"96.5mm"	"55.5mm"	"96.5mm"	"T"	"180"	"4.7K"
"ETH_R14"	"R0402"	"47mm"	"86.5mm"	"47mm"	"86.5mm"	"46.57mm"	"86.5mm"	"T"	"0"	"1MΩ"
"ETH_R15"	"R0402"	"45mm"	"85.5mm"	"45mm"	"85.5mm"	"45mm"	"86mm"	"T"	"270"	"0"
"IN0"	"AUDIO-TH_PJ313D"	"79.5mm"	"50.5mm"	"79.5mm"	"50.5mm"	"82.85mm"	"53.65mm"	"T"	"180"	"PJ313D"
"IN1"	"AUDIO-TH_PJ313D"	"79.5mm"	"41.5mm"	"79.5mm"	"41.5mm"	"82.85mm"	"44.65mm"	"T"	"180"	"PJ313D"
"IN2"	"AUDIO-TH_PJ313D"	"79.5mm"	"32.5mm"	"79.5mm"	"32.5mm"	"82.85mm"	"35.65mm"	"T"	"180"	"PJ313D"
"IOE"	"WQFN-16_L3.0-W3.0-P0.50-TL-EP1.7"	"61mm"	"46.5mm"	"61mm"	"46.5mm"	"62.5mm"	"45.75mm"	"T"	"180"	"TLA2518IRTER"
"IOE_C1"	"C0402"	"60.71mm"	"50.04mm"	"60.71mm"	"50.04mm"	"60.71mm"	"49.54mm"	"T"	"90"	"1uF"
"IOE_C2"	"C0402"	"57.53mm"	"46.99mm"	"57.53mm"	"46.99mm"	"58.03mm"	"46.99mm"	"T"	"180"	"1uF"
"IOE_C3"	"C0402"	"58.93mm"	"48.9mm"	"58.93mm"	"48.9mm"	"59.43mm"	"48.9mm"	"T"	"180"	"1uF"
"J1"	"RJ45-TH_HR911105A"	"29mm"	"93mm"	"29mm"	"93mm"	"33.45mm"	"88.65mm"	"T"	"180"	"HR911105A_C12074"
"M_C1"	"C0402"	"50.5mm"	"44mm"	"50.5mm"	"44mm"	"51mm"	"44mm"	"T"	"180"	"1uF"
"M_U1"	"LGA-16_L3.0-W3.0-P0.50-BL"	"51.5mm"	"47mm"	"51.5mm"	"47mm"	"53.05mm"	"46mm"	"T"	"90"	"KX023-1025"
"NET"	"LED0603-R-RD"	"64.5mm"	"103mm"	"64.5mm"	"103mm"	"65.35mm"	"103mm"	"T"	"0"	"19-217/GHC-YR1S2/3T"
"NETLIGHT"	"LED0603-R-RD"	"53.5mm"	"103mm"	"53.5mm"	"103mm"	"54.35mm"	"103mm"	"T"	"0"	"19-213/Y2C-CQ2R2L/3T(CY)"
"PWR"	"LED0603-R-RD"	"75.5mm"	"103mm"	"75.5mm"	"103mm"	"76.35mm"	"103mm"	"T"	"0"	"19-217/GHC-YR1S2/3T"
"P_C1"	"C0805"	"26.5mm"	"28mm"	"26.5mm"	"28mm"	"27.5mm"	"28mm"	"T"	"180"	"2.2uF"
"P_C2"	"C0402"	"34mm"	"36mm"	"34mm"	"36mm"	"34mm"	"36.5mm"	"T"	"270"	"10nF"
"P_C3"	"CAP-SMD_BD6.3-L6.6-W6.6-RD"	"28.26mm"	"8.91mm"	"28.26mm"	"8.91mm"	"30.81mm"	"8.91mm"	"T"	"0"	"220uF"
"P_C4"	"CAP-SMD_BD6.3-L6.6-W6.6-RD"	"21mm"	"20mm"	"21mm"	"20mm"	"21mm"	"22.8mm"	"T"	"90"	"100uF"
"P_C5"	"C0402"	"16.76mm"	"33.02mm"	"16.76mm"	"33.02mm"	"16.76mm"	"32.47mm"	"T"	"90"	"10nF"
"P_C6"	"C0402"	"16.5mm"	"23mm"	"16.5mm"	"23mm"	"16.5mm"	"23.55mm"	"T"	"270"	"10nF"
"P_C7"	"C0402"	"22.5mm"	"10mm"	"22.5mm"	"10mm"	"21.96mm"	"10mm"	"T"	"0"	"10nF"
"P_D1"	"SOD-123F_L2.8-W1.8-LS3.7-RD"	"19.5mm"	"29.5mm"	"19.5mm"	"29.5mm"	"21.05mm"	"29.5mm"	"T"	"180"	"SM4007PL"
"P_D2"	"SMA_L4.3-W2.6-LS5.2-RD"	"32.13mm"	"32.26mm"	"32.13mm"	"32.26mm"	"32.13mm"	"30.2mm"	"T"	"90"	"MBRA340T3G"
"P_D3"	"SOD-123F_L2.8-W1.8-LS3.7-RD"	"19.5mm"	"32.5mm"	"19.5mm"	"32.5mm"	"21.05mm"	"32.5mm"	"T"	"180"	"SM4007PL"
"P_F1"	"F1206"	"19.5mm"	"26.5mm"	"19.5mm"	"26.5mm"	"17.9mm"	"26.5mm"	"T"	"0"	"nSMD020-30V"
"P_L1"	"IND-SMD_L12.5-W12.5"	"31.5mm"	"20mm"	"31.5mm"	"20mm"	"31.5mm"	"24.98mm"	"T"	"270"	"33uH"
"P_L2"	"L1206"	"23.5mm"	"26mm"	"23.5mm"	"26mm"	"23.5mm"	"24.4mm"	"T"	"90"	"1uH"
"P_PWR"	"CONN-TH_3P-P5.08_WJ2EDGRC-5.08-3P"	"13.97mm"	"26.16mm"	"13.97mm"	"26.16mm"	"13.97mm"	"31.24mm"	"T"	"270"	"WJ2EDGRC-5.08-3P_C8377"
"P_R1"	"R0402"	"25mm"	"38.5mm"	"25mm"	"38.5mm"	"25.5mm"	"38.5mm"	"T"	"180"	"10K"
"P_R2"	"R0402"	"22.05mm"	"35.86mm"	"22.05mm"	"35.86mm"	"22.55mm"	"35.86mm"	"T"	"180"	"5.76K"
"P_U1"	"SOIC-8_L5.0-W4.0-P1.27-LS6.0-BL-EP"	"28mm"	"33mm"	"28mm"	"33mm"	"29.91mm"	"35.97mm"	"T"	"180"	"TPS5430DDAR"
"RESET"	"KEY-TH_4P-L7.1-W12.4-P4.50-LS2.5"	"79.5mm"	"84.5mm"	"79.5mm"	"84.5mm"	"80.75mm"	"82.25mm"	"T"	"90"	"TS-1093A-A12B3-D2"
"SD_C1"	"C0402"	"67.82mm"	"60.45mm"	"67.82mm"	"60.45mm"	"67.82mm"	"61mm"	"T"	"270"	"100nF"
"SD_C2"	"C0603"	"67.82mm"	"63.37mm"	"67.82mm"	"63.37mm"	"67.82mm"	"62.67mm"	"T"	"90"	"10uF"
"SD_R1"	"R0402"	"45.47mm"	"73.79mm"	"45.47mm"	"73.79mm"	"45.47mm"	"74.22mm"	"T"	"270"	"10K"
"SD_R2"	"R0402"	"58.17mm"	"51.18mm"	"58.17mm"	"51.18mm"	"58.17mm"	"50.75mm"	"T"	"90"	"10K"
"SD_R3"	"R0402"	"49.15mm"	"51.18mm"	"49.15mm"	"51.18mm"	"49.15mm"	"50.75mm"	"T"	"90"	"10K"
"SD_R4"	"R0402"	"50.55mm"	"51.18mm"	"50.55mm"	"51.18mm"	"50.55mm"	"50.75mm"	"T"	"90"	"10K"
"STATUS"	"LED0603-R-RD"	"59mm"	"103mm"	"59mm"	"103mm"	"59.85mm"	"103mm"	"T"	"0"	"19-213/Y2C-CQ2R2L/3T(CY)"
"STA_R4"	"R0402"	"74.52mm"	"98.68mm"	"74.52mm"	"98.68mm"	"74.52mm"	"98.18mm"	"T"	"90"	"330"
"STA_R6"	"R0402"	"68.93mm"	"98.68mm"	"68.93mm"	"98.68mm"	"68.93mm"	"98.18mm"	"T"	"90"	"330"
"STA_R8"	"R0402"	"63.59mm"	"98.68mm"	"63.59mm"	"98.68mm"	"63.59mm"	"98.18mm"	"T"	"90"	"330"
"TF1"	"TF-SMD_DM3CS-SF"	"76mm"	"62.5mm"	"76mm"	"62.5mm"	"69.65mm"	"59.38mm"	"T"	"270"	"DM3CS-SF"
"U2"	"LQFP-48_L7.0-W7.0-P0.50-LS9.0-BL"	"53.5mm"	"89mm"	"53.5mm"	"89mm"	"49.25mm"	"91.75mm"	"T"	"270"	"W6100"
"X1"	"OSC-SMD_4P-L3.2-W2.5-BL"	"47.88mm"	"84.2mm"	"47.88mm"	"84.2mm"	"46.78mm"	"83.33mm"	"T"	"0"	"25MHz"
