ID	Name	Designator	Footprint	Quantity	Manufacturer Part	Manufacturer	Supplier	Supplier Part	_Price	LCSC Assembly	Assembly Type	Paste Type	JLCPCB SMD
"1"	"HP203B"	"BAROMETER"	"QFN-8_HP203B"	"1"	"HP203B"	"HOPERF"	"LCSC"	"C138665"	"$0.5851"	"Yes"	"smtWeld"	"expand"	""
"2"	"DTSA-65N-V"	"BOOT,RESET"	"SW-TH_DTSA-65N-V"	"2"	"DTSA-65N-V"	"Diptronics"	"LCSC"	"C224975"	"$0.1021"	"Yes"	"manualWeld"	"expand"	""
"3"	"1nF"	"B_C2"	"C0402"	"1"	"0402B102K500NT"	"FH"	"LCSC"	"C1523"	"$0.0013"	"Yes"	""	""	"Yes"
"4"	"470"	"B_R1"	"R0402"	"1"	"0402WGF4700TCE"	"UniOhm"	"LCSC"	"C25117"	"$0.0007"	"Yes"	""	""	"Yes"
"5"	"470"	"B_R2"	"R0402"	"1"	"0402WGF4700TCE"	"UniOhm"	"LCSC"	"C25117"	"$0.0007"	"Yes"	""	""	"Yes"
"6"	"SMC-202-6"	"CARD1"	"SIM-SMD_SMC-202-6"	"1"	"SMC-202-6"	"XUNPU"	"LCSC"	"C266634"	"$0.575"	""	""	""	""
"7"	"WJ15EDGRC-3.81-4P"	"D_CN1"	"CONN-TH_WJ15EDGRC-3.81-4P"	"1"	"WJ15EDGRC-3.81-4P"	"ReliaPro"	"LCSC"	"C7245"	"$0.044"	"Yes"	"manualWeld"	"expand"	""
"8"	"1.5K"	"D_R1,D_R2,D_R3,D_R4,D_R5,D_R6,D_R7,D_R8,D_R9"	"R0402"	"9"	"0402WGF1501TCE"	"UniOhm"	"LCSC"	"C25867"	"$0.0007"	"Yes"	"smtWeld"	"base"	"Yes"
"9"	"10K"	"D_R10,D_R11,D_R12,ESP_R2,ESP_R3,E_R1,E_R2,E_R3,E_R4,E_R5,E_R6,E_R7,E_R8,E_R10,E_R11,E_R12,E_R13,E_R14,E_R15,E_R16,P_R1"	"R0402"	"21"	"0402WGF1002TCE"	"UniOhm"	"LCSC"	"C25744"	"$0.0008"	"Yes"	""	""	"Yes"
"10"	"LTV-847S"	"D_U1"	"SMD-16_L20.0-W6.5-P2.54-LS10.2-BL"	"1"	"LTV-847S"	"LITEON"	"LCSC"	"C114599"	"$0.3078"	""	"smtWeld"	"recommend"	"Yes"
"11"	"100uF"	"ESP_C1,G_C1"	"CAP-SMD_L3.5-W2.8"	"2"	"TAJB107K006RNJ"	"AVX"	"LCSC"	"C16133"	"$0.1544"	"Yes"	""	""	"Yes"
"12"	"1nF"	"B_C1,ESP_C3"	"C0402"	"2"	"0402B102K500NT"	"FH"	"LCSC"	"C1523"	"$0.0013"	"Yes"	""	""	"Yes"
"13"	"ESP32-WROOM-32"	"ESP_IC"	"WIFIM-SMD_39P-L25.5-W18.0-P1.27"	"1"	"ESP32-WROOM-32"	"Espressif Systems"	"LCSC"	"C82899"	"$5.2765"	""	""	""	""
"14"	"12K"	"ESP_R1"	"R0402"	"1"	"0402WGF1202TCE"	"UniOhm"	"LCSC"	"C25752"	"$0.0008"	"Yes"	""	""	"Yes"
"15"	"5.1K"	"ESP_R4"	"R0402"	"1"	"0402WGF5101TCE"	"UniOhm"	"LCSC"	"C25905"	"$0.0008"	"Yes"	""	""	"Yes"
"16"	"1K"	"ESP_R5,ESP_R6"	"R0402"	"2"	"0402WGF1001TCE"	"UniOhm"	"LCSC"	"C11702"	"$0.0009"	"Yes"	"smtWeld"	"base"	"Yes"
"17"	"5.6K"	"ESP_R7,ESP_R8"	"R0402"	"2"	"0402WGF5601TCE"	"UniOhm"	"LCSC"	"C25908"	"$0.0007"	"Yes"	"smtWeld"	"base"	"Yes"
"18"	"WJ15EDGRC-3.81-8P"	"EXPANSION"	"CONN-TH_8P-P3.81_WJ15EDGRC-3.81-8P"	"1"	"WJ15EDGRC-3.81-8P"	"ReliaPro"	"LCSC"	"C14235"	"$0.0879"	"Yes"	"manualWeld"	"expand"	""
"19"	"10nF"	"E_C2,E_C7"	"C0402"	"2"	"CL05B103KB5NNNC"	"SAMSUNG"	"LCSC"	"C15195"	"$0.0012"	"Yes"	"smtWeld"	"base"	"Yes"
"20"	"4.7nF"	"E_C4"	"C0402"	"1"	"0402B472K500NT"	"FH"	"LCSC"	"C1538"	"$0.0014"	"Yes"	"smtWeld"	"base"	"Yes"
"21"	"6.8nF"	"E_C5,E_C8"	"C0402"	"2"	"0402B682K500NT"	"FH"	"LCSC"	"C1542"	"$0.0013"	"Yes"	"smtWeld"	"base"	"Yes"
"22"	"18pF"	"E_C9,E_C10"	"C0402"	"2"	"0402CG180J500NT"	"FH"	"LCSC"	"C1549"	"$0.0015"	"Yes"	""	""	"Yes"
"23"	"22nF"	"E_C11"	"C0402"	"1"	"0402B223K500NT"	"FH"	"LCSC"	"C1532"	"$0.0029"	"Yes"	""	""	"Yes"
"24"	"W5500"	"E_IC"	"QFP-48_LSA9.20-LSB9.20-PITCH0.50-TL"	"1"	"W5500"	"WIZNET"	"LCSC"	"C32843"	"$2.8446"	"Yes"	""	""	""
"25"	"12.4K"	"E_R9"	"R0402"	"1"	"0402WGF1242TCE"	"UniOhm"	"LCSC"	"C11692"	"$0.0006"	"Yes"	"smtWeld"	"expand"	"Yes"
"26"	"10"	"E_R19"	"R0402"	"1"	"0402WGF100JTCE"	"UniOhm"	"LCSC"	"C25077"	"$0.0007"	"Yes"	"smtWeld"	"base"	"Yes"
"27"	"82"	"E_R20,E_R21"	"R0603"	"2"	"0603WAF820JT5E"	"UniOhm"	"LCSC"	"C23255"	"$0.0012"	"Yes"	""	""	"Yes"
"28"	"1M"	"E_R22"	"R0603"	"1"	"0603WAF1004T5E"	"UniOhm"	"LCSC"	"C22935"	"$0.0013"	"Yes"	""	""	"Yes"
"29"	"R-RJ45R08P-A004"	"E_RJ1"	"RJ45-TH_R-RJ45R08P-A004"	"1"	"R-RJ45R08P-A004"	"Shenzhen Cankemeng"	"LCSC"	"C385834"	"$0.1289"	"Yes"	""	""	""
"30"	"H1102NLT"	"E_T1"	"XFMR-SMD_H1102NLT"	"1"	"H1102NLT"	"PULSE"	"LCSC"	"C18584"	"$1.0175"	"Yes"	""	""	""
"31"	"25MHz"	"E_X1"	"OSC-SMD_4P-L3.2-W2.5-BL"	"1"	"X322525MOB4SI"	"YXC"	"LCSC"	"C9006"	"$0.0961"	"Yes"	""	""	"Yes"
"32"	"22pF"	"G_C3"	"C0402"	"1"	"0402CG220J500NT"	"FH"	"LCSC"	"C1555"	"$0.0016"	"Yes"	"smtWeld"	"base"	"Yes"
"33"	"ESDA6V1-5W6_C87908"	"G_D1"	"SOT323-6L_L2.0-W1.3-LS2.1-BR"	"1"	"ESDA6V1-5W6"	"STMicroelectronics"	"LCSC"	"C87908"	"$0.1387"	"Yes"	"smtWeld"	"expand"	"Yes"
"34"	"SM4007PL"	"G_D2"	"SOD-123F_L2.8-W1.8-LS3.7-RD"	"1"	"SM4007PL"	"MDD"	"LCSC"	"C64898"	"$0.0071"	"Yes"	""	""	""
"35"	"U.FL-R-SMT-1(80)"	"G_JP1"	"RF-SMD_U.FL-R-SMT-1-80"	"1"	"U.FL-R-SMT-1(80)"	"HRS"	"LCSC"	"C88374"	"$0.0755"	""	"smtWeld"	"expand"	""
"36"	"51"	"E_R17,E_R18,G_R1,G_R2,G_R3"	"R0402"	"5"	"0402WGF510JTCE"	"UniOhm"	"LCSC"	"C25125"	"$0.0007"	"Yes"	"smtWeld"	"base"	"Yes"
"37"	"SIM800C 24Mbit"	"G_U1"	"COMM-SMD_42P-L15.7-W17.6-P1.10"	"1"	"SIM800C 24Mbit"	"SIMCOM"	"LCSC"	"C69119"	"$3.6275"	"Yes"	"smtWeld"	"expand"	""
"38"	"W25Q128JVSIQTR"	"MEM1"	"SOIC-8_L5.3-W5.3-P1.27-LS8.0-BL"	"1"	"W25Q128JVSIQTR"	"WINBOND"	"LCSC"	"C97521"	"$1.0074"	"Yes"	""	""	""
"39"	"100nF"	"E_C1,E_C3,E_C6,G_C2,M_C1"	"C0402"	"5"	"CL05B104KO5NNNC"	"SAMSUNG"	"LCSC"	"C1525"	"$0.0013"	"Yes"	"smtWeld"	"base"	"Yes"
"40"	"KX023-1025"	"M_IC1"	"LGA-16_L3.0-W3.0-P0.50-BL"	"1"	"KX023-1025"	"ROHM Semicon"	"LCSC"	"C236128"	"$0.5378"	"Yes"	""	""	"Yes"
"41"	"100nF"	"POE_C1"	"C0603"	"1"	"CC0603KRX7R0BB104"	"YAGEO"	"LCSC"	"C113803"	"$0.0127"	""	""	""	""
"42"	"MB6S_C211754"	"POE_D1,POE_D2"	"MBS_L4.7-W4.0-P2.40-LS7.0-BL"	"2"	"MB6S"	"Yangzhou Yangjie Elec Tech"	"LCSC"	"C211754"	"$0.0391"	"Yes"	"smtWeld"	"expand"	"Yes"
"43"	"SMAJ58A_C115922"	"POE_D3"	"SMA_L4.4-W2.6-LS5.0-RD"	"1"	"SMAJ58A"	"Brightking"	"LCSC"	"C115922"	"$0.047"	"Yes"	""	""	"Yes"
"44"	"TPS2376DDA-H"	"POE_IC"	"HSOP-8_L5.0-W4.0-P1.27-LS6.2-BL-EP"	"1"	"TPS2376DDA-H"	"TI"	"LCSC"	"C131961"	"$2.2442"	"Yes"	""	""	"Yes"
"45"	"4.42K"	"POE_R1"	"R0402"	"1"	"0402WGF4421TCE"	"UniOhm"	"LCSC"	"C52269"	"$0.0008"	"Yes"	""	""	"Yes"
"46"	"130K"	"POE_R2"	"R0603"	"1"	"0603WAF1303T5E"	"UniOhm"	"LCSC"	"C22795"	"$0.0012"	"Yes"	"smtWeld"	"base"	"Yes"
"47"	"23.2K"	"POE_R3"	"R0805"	"1"	"0805W8F2322T5E"	"UniOhm"	"LCSC"	"C17562"	"$0.0015"	"Yes"	"smtWeld"	"expand"	"Yes"
"48"	"1.62K"	"POE_R4"	"R0603"	"1"	"0603WAF1621T5E"	"UniOhm"	"LCSC"	"C22844"	"$0.0012"	"Yes"	"smtWeld"	"expand"	"Yes"
"49"	"Header-Female-2.54_1x6"	"PROGRAM"	"HDR-TH_6P-P2.54-V-F"	"1"	"Female header 1*6p"	"BOOMELE"	"LCSC"	"C40877"	"$0.0575"	"Yes"	"manualWeld"	"expand"	""
"50"	"WJ15EDGRC-3.81-2P"	"PWR"	"CONN-TH_2P-P3.81_WJ15EDGRC-3.81-2P"	"1"	"WJ15EDGRC-3.81-2P"	"ReliaPro"	"LCSC"	"C8387"	"$0.0221"	"Yes"	"manualWeld"	"expand"	""
"51"	"100uF"	"P_C1"	"CAP-SMD_BD10.0-L10.3-W10.3-FD"	"1"	"VEJ101M1J1010-TRO"	"Lelon"	"LCSC"	"C249589"	"$0.1607"	""	"smtWeld"	"expand"	""
"52"	"1000uF"	"P_C2"	"CAP-TH_BD10.0-P5.00-D1.0-FD"	"1"	"ERR1VM102G20OT"	"Aihua Group"	"LCSC"	"C398835"	"$0.1273"	"Yes"	"manualWeld"	"expand"	""
"53"	"10uF"	"P_C3,P_C4"	"CAP-SMD_L3.2-W1.6-RD"	"2"	"TAJA106K016RNJ"	"AVX"	"LCSC"	"C7171"	"$0.1231"	""	"smtWeld"	"base"	"Yes"
"54"	"1uF"	"ESP_C2,P_C5"	"C0402"	"2"	"CL05A105KA5NQNC"	"SAMSUNG"	"LCSC"	"C52923"	"$0.0044"	"Yes"	""	""	"Yes"
"55"	"330uF"	"P_C6"	"CAP-SMD_BD6.3-L6.6-W6.6-FD"	"1"	"EEEFTC331XAP"	"PANASONIC"	"LCSC"	"C413522"	"$0.345455"	"Yes"	"smtWeld"	"expand"	"Yes"
"56"	"MBRS360T3G"	"P_D1"	"SMC_L7.1-W6.2-LS8.1-RD"	"1"	"MBRS360T3G"	"ON"	"LCSC"	"C24449"	"$0.245"	"Yes"	""	""	"Yes"
"57"	"B5819W_C8598"	"P_D2"	"SOD-123_L2.8-W1.8-LS3.7-RD"	"1"	"B5819W"	"CJ"	"LCSC"	"C8598"	"$0.0357"	"Yes"	"smtWeld"	"base"	"Yes"
"58"	"100uH"	"P_L1"	"IND-SMD_L10.5-W10.5"	"1"	"SLD10D40S-101MTT"	"Sunltech Tech"	"LCSC"	"C182200"	"$0.1545"	""	""	""	"Yes"
"59"	"68uH"	"P_L2"	"IND-SMD_L11.5-W10.0_SMMS1040"	"1"	"SMMS1040-680MT"	"ShunXiang Connaught Elec"	"LCSC"	"C286354"	"$0.2368"	"Yes"	"smtWeld"	"expand"	""
"60"	"56K"	"P_R2"	"R0805"	"1"	"0805W8F5602T5E"	"UniOhm"	"LCSC"	"C17756"	"$0.0022"	"Yes"	"smtWeld"	"base"	"Yes"
"61"	"3K"	"P_R3"	"R0805"	"1"	"0805W8F3001T5E"	"UniOhm"	"LCSC"	"C17661"	"$0.0023"	"Yes"	"smtWeld"	"base"	"Yes"
"62"	"LM2576HVSX-ADJ/NOPB"	"P_U1"	"TO-263-5_L10.2-W9.9-P1.70-LS14.4-TL"	"1"	"LM2576HVSX-ADJ/NOPB"	"TI"	"LCSC"	"C38022"	"$3.2365"	"Yes"	"smtWeld"	"expand"	"Yes"
"63"	"LM1117IMPX-3.3/NOPB"	"P_U2"	"SOT-223_L6.5-W3.5-P2.30-LS7.0-BR"	"1"	"LM1117IMPX-3.3/NOPB"	"TI"	"LCSC"	"C23984"	"$0.3283"	"Yes"	""	""	"Yes"
"64"	"XL1509-5.0E1"	"P_U3"	"SOIC-8_L5.0-W4.0-P1.27-LS6.0-BL"	"1"	"XL1509-5.0E1"	"XLSEMI"	"LCSC"	"C61063"	"$0.212"	"Yes"	"smtWeld"	"base"	"Yes"
"65"	"Header-Female-2.54_1x8"	"SCREEN"	"HDR-TH_8P-P2.54-V"	"1"	"Female headerHDR1X8-2.54"	"BOOMELE"	"LCSC"	"C27438"	"$0.0538"	"Yes"	"manualWeld"	"expand"	""
"66"	"MSK12C02-HB"	"SW1"	"SW-TH_MSK12C02-HB"	"1"	"MSK12C02-HB"	"SHOU HAN"	"LCSC"	"C431541"	"$0.0447"	""	"smtWeld"	"expand"	""
"67"	"4.7uF"	"S_C1"	"C0402"	"1"	"CL05A475MP5NRNC"	"SAMSUNG"	"LCSC"	"C23733"	"$0.0093"	"Yes"	"smtWeld"	"base"	"Yes"
"68"	"HDC1080DMBR"	"TEMP/HUM"	"SENSOR-SMD_HDC1080DMBR"	"1"	"HDC1080DMBR"	"TI"	"LCSC"	"C82227"	"$1.0976"	"Yes"	"smtWeld"	"expand"	""
